<?xml version="1.0" encoding="UTF-8"?>
<testng-results skipped="0" failed="0" ignored="0" total="2" passed="2">
  <reporter-output>
  </reporter-output>
  <suite name="Default suite" duration-ms="15965" started-at="2019-12-05T09:41:29Z" finished-at="2019-12-05T09:41:45Z">
    <groups>
    </groups>
    <test name="Default test" duration-ms="15965" started-at="2019-12-05T09:41:29Z" finished-at="2019-12-05T09:41:45Z">
      <class name="com.tavant.kwutils.MyTestCaseExecuter">
        <test-method status="PASS" signature="beforeSuite()[pri:0, instance:com.tavant.kwutils.MyTestCaseExecuter@16e7dd1c]" test-instance-name="Auto_MYKY_LP_01:Login to MyKey with valid user credentials" name="beforeSuite" is-config="true" duration-ms="45" started-at="2019-12-05T09:41:29Z" finished-at="2019-12-05T09:41:29Z">
          <reporter-output>
          </reporter-output>
        </test-method> <!-- beforeSuite -->
        <test-method status="PASS" signature="beforeClass(java.lang.String, java.lang.String, java.lang.String, java.lang.String, java.lang.String)[pri:0, instance:com.tavant.kwutils.MyTestCaseExecuter@16e7dd1c]" test-instance-name="Auto_MYKY_LP_02:Verify login functionality with invalid credentials with MyKey" name="beforeClass" is-config="true" duration-ms="5" started-at="2019-12-05T09:41:29Z" finished-at="2019-12-05T09:41:29Z">
          <params>
            <param index="0">
              <value>
                <![CDATA[none]]>
              </value>
            </param>
            <param index="1">
              <value>
                <![CDATA[none]]>
              </value>
            </param>
            <param index="2">
              <value>
                <![CDATA[none]]>
              </value>
            </param>
            <param index="3">
              <value>
                <![CDATA[none]]>
              </value>
            </param>
            <param index="4">
              <value>
                <![CDATA[none]]>
              </value>
            </param>
          </params>
          <reporter-output>
          </reporter-output>
        </test-method> <!-- beforeClass -->
        <test-method status="PASS" signature="testCase()[pri:0, instance:com.tavant.kwutils.MyTestCaseExecuter@16e7dd1c]" test-instance-name="Auto_MYKY_LP_02:Verify login functionality with invalid credentials with MyKey" name="testCase" duration-ms="6771" started-at="2019-12-05T09:41:29Z" finished-at="2019-12-05T09:41:36Z">
          <reporter-output>
          </reporter-output>
        </test-method> <!-- testCase -->
        <test-method status="PASS" signature="afterMethod()[pri:0, instance:com.tavant.kwutils.MyTestCaseExecuter@16e7dd1c]" test-instance-name="Auto_MYKY_LP_02:Verify login functionality with invalid credentials with MyKey" name="afterMethod" is-config="true" duration-ms="345" started-at="2019-12-05T09:41:36Z" finished-at="2019-12-05T09:41:36Z">
          <reporter-output>
          </reporter-output>
        </test-method> <!-- afterMethod -->
        <test-method status="PASS" signature="closeDriver()[pri:0, instance:com.tavant.kwutils.MyTestCaseExecuter@16e7dd1c]" test-instance-name="Auto_MYKY_LP_02:Verify login functionality with invalid credentials with MyKey" name="closeDriver" is-config="true" duration-ms="9" started-at="2019-12-05T09:41:36Z" finished-at="2019-12-05T09:41:36Z">
          <reporter-output>
          </reporter-output>
        </test-method> <!-- closeDriver -->
        <test-method status="PASS" signature="beforeClass(java.lang.String, java.lang.String, java.lang.String, java.lang.String, java.lang.String)[pri:0, instance:com.tavant.kwutils.MyTestCaseExecuter@16e7dd1c]" test-instance-name="Auto_MYKY_LP_01:Login to MyKey with valid user credentials" name="beforeClass" is-config="true" duration-ms="0" started-at="2019-12-05T09:41:36Z" finished-at="2019-12-05T09:41:36Z">
          <params>
            <param index="0">
              <value>
                <![CDATA[none]]>
              </value>
            </param>
            <param index="1">
              <value>
                <![CDATA[none]]>
              </value>
            </param>
            <param index="2">
              <value>
                <![CDATA[none]]>
              </value>
            </param>
            <param index="3">
              <value>
                <![CDATA[none]]>
              </value>
            </param>
            <param index="4">
              <value>
                <![CDATA[none]]>
              </value>
            </param>
          </params>
          <reporter-output>
          </reporter-output>
        </test-method> <!-- beforeClass -->
        <test-method status="PASS" signature="testCase()[pri:0, instance:com.tavant.kwutils.MyTestCaseExecuter@222114d9]" test-instance-name="Auto_MYKY_LP_01:Login to MyKey with valid user credentials" name="testCase" duration-ms="8572" started-at="2019-12-05T09:41:36Z" finished-at="2019-12-05T09:41:45Z">
          <reporter-output>
          </reporter-output>
        </test-method> <!-- testCase -->
        <test-method status="PASS" signature="afterMethod()[pri:0, instance:com.tavant.kwutils.MyTestCaseExecuter@16e7dd1c]" test-instance-name="Auto_MYKY_LP_01:Login to MyKey with valid user credentials" name="afterMethod" is-config="true" duration-ms="223" started-at="2019-12-05T09:41:45Z" finished-at="2019-12-05T09:41:45Z">
          <reporter-output>
          </reporter-output>
        </test-method> <!-- afterMethod -->
        <test-method status="PASS" signature="closeDriver()[pri:0, instance:com.tavant.kwutils.MyTestCaseExecuter@16e7dd1c]" test-instance-name="Auto_MYKY_LP_01:Login to MyKey with valid user credentials" name="closeDriver" is-config="true" duration-ms="0" started-at="2019-12-05T09:41:45Z" finished-at="2019-12-05T09:41:45Z">
          <reporter-output>
          </reporter-output>
        </test-method> <!-- closeDriver -->
        <test-method status="PASS" signature="afterSuite()[pri:0, instance:com.tavant.kwutils.MyTestCaseExecuter@16e7dd1c]" test-instance-name="Auto_MYKY_LP_01:Login to MyKey with valid user credentials" name="afterSuite" is-config="true" duration-ms="502" started-at="2019-12-05T09:41:45Z" finished-at="2019-12-05T09:41:46Z">
          <reporter-output>
          </reporter-output>
        </test-method> <!-- afterSuite -->
      </class> <!-- com.tavant.kwutils.MyTestCaseExecuter -->
    </test> <!-- Default test -->
  </suite> <!-- Default suite -->
</testng-results>
